hcruR • hcruR
…
hcru_summary
#> $`Summary by settings using dplyr`
#> # A tibble: 757 × 15
#>    patient_id cohort  care_setting time_window  Days  Month   Year Visits   Cost
#>    <chr>      <chr>   <chr>        <chr>       <dbl>  <dbl>  <dbl>  <dbl>  <dbl>
#>  1 P_1001     control ED           Post          319 10.5   0.873       2  4677.
#>  2 P_1001     control ED           Pre            18  0.592 0.0492      1  1871.
#>  3 P_1001     control IP           Post           21  0.690 0.0575      1 23591.
#>  4 P_1001     control IP           Pre            22  0.723 0.0602      1 23142.
#>  5 P_1001     control OP           Post           13  0.427 0.0356      1   699.
#>  6 P_1002     treatm… ED           Post          271  8.91  0.741       2  3088.
#>  7 P_1002     treatm… ED           Pre           153  5.03  0.419       1  1869.
#>  8 P_1002     treatm… IP           Post          270  8.88  0.739       3 42218.
#>  9 P_1002     treatm… OP           Pre           195  6.41  0.534       2  1910.
#> 10 P_1003     treatm… ED           Post           59  1.94  0.161       1  4895.
#> # ℹ 747 more rows
#> # ℹ 6 more variables: LOS <dbl>, Readmission <dbl>, Visit_PPPM <dbl>,
#> #   Visit_PPPY <dbl>, Cost_PPPM <dbl>, Cost_PPPY <dbl>
…
