preproc_hcru_fun — preproc_hcru_fun • hcruR
…
readmission_days_rule
Rule for how many days can be permissible to
define readmission criteria in AP setting (default 30 days)

    Value

    dataframe with HCRU estimates.

    Examples

# \donttest{
preproc_hcru_fun(data = hcru_sample_data)
#> # A tibble: 1,089 × 17
#>    patient_id cohort  encounter_id care_setting visit_date admission_date
#>    <chr>      <chr>   <chr>        <chr>        <date>     <date>        
#>  1 P_1001     control E_645327     IP           2023-08-23 2023-08-23    
#>  2 P_1001     control E_379584     IP           2023-10-03 2023-10-03    
#>  3 P_1001     control E_591096     ED           2023-08-27 NA            
#>  4 P_1001     control E_864419     OP           2023-09-25 NA            
#>  5 P_1001     control E_617025     ED           2024-02-07 NA            
#>  6 P_1001     control E_379047     ED           2024-03-01 NA            
#>  7 P_1005     control E_430504     IP           2023-04-13 2023-04-13    
#>  8 P_1005     control E_921506     IP           2023-05-11 2023-05-11    
#>  9 P_1005     control E_914515     OP           2023-09-07 NA            
#> 10 P_1005     control E_467081     OP           2023-10-27 NA            
#> # ℹ 1,079 more rows
#> # ℹ 11 more variables: discharge_date <date>, encounter_date <date>,
#> #   index_date <date>, period <chr>, cost_usd <dbl>, visit_days <dbl>,
#> #   time_window <chr>, length_of_stay <dbl>, next_admit <date>,
#> #   days_to_next <dbl>, readmission <dbl>
…
